{
  "prepare_queue": {
    "installed": [],
    "uninstalled": []
  },
  "config_munge": {
    "files": {}
  },
  "installed_plugins": {
    "cordova-android-support-gradle-release": {
      "ANDROID_SUPPORT_VERSION": "27.+",
      "PACKAGE_NAME": "com.track9pro.ionic"
    },
    "cordova-plugin-androidx": {
      "PACKAGE_NAME": "com.track9pro.ionic"
    },
    "cordova-plugin-androidx-adapter": {
      "PACKAGE_NAME": "com.track9pro.ionic"
    }
  },
  "dependent_plugins": {
    "es6-promise-plugin": {
      "PACKAGE_NAME": "com.track9pro.ionic"
    }
  }
}
