{
  "prepare_queue": {
    "installed": [],
    "uninstalled": []
  },
  "config_munge": {
    "files": {}
  },
  "installed_plugins": {
    "call-number": {
      "PACKAGE_NAME": "com.JRFleetview.app"
    },
    "com.razorpay.cordova": {
      "PACKAGE_NAME": "com.JRFleetview.app"
    },
    "cordova-android-support-gradle-release": {
      "PACKAGE_NAME": "com.JRFleetview.app"
    },
    "cordova-clipboard": {
      "PACKAGE_NAME": "com.JRFleetview.app"
    },
    "cordova-plugin-android-permissions": {
      "PACKAGE_NAME": "com.JRFleetview.app"
    },
    "cordova-plugin-androidx": {
      "PACKAGE_NAME": "com.JRFleetview.app"
    },
    "cordova-plugin-androidx-adapter": {
      "PACKAGE_NAME": "com.JRFleetview.app"
    },
    "cordova-plugin-app-version": {
      "PACKAGE_NAME": "com.JRFleetview.app"
    },
    "cordova-plugin-camera": {
      "PACKAGE_NAME": "com.JRFleetview.app"
    },
    "cordova-plugin-crop": {
      "PACKAGE_NAME": "com.JRFleetview.app"
    },
    "cordova-plugin-file": {
      "PACKAGE_NAME": "com.JRFleetview.app"
    },
    "cordova-plugin-file-transfer": {
      "PACKAGE_NAME": "com.JRFleetview.app"
    },
    "cordova-plugin-filepath": {
      "PACKAGE_NAME": "com.JRFleetview.app"
    },
    "cordova-plugin-geolocation": {
      "PACKAGE_NAME": "com.JRFleetview.app"
    },
    "cordova-plugin-googlemaps": {
      "LOCATION_WHEN_IN_USE_DESCRIPTION": "This app wants to get your location while this app runs only.",
      "LOCATION_ALWAYS_USAGE_DESCRIPTION": "This app wants to get your location always, even this app runs in background.",
      "PACKAGE_NAME": "com.JRFleetview.app"
    },
    "cordova-plugin-inappbrowser": {
      "PACKAGE_NAME": "com.JRFleetview.app"
    },
    "cordova-plugin-insomnia": {
      "PACKAGE_NAME": "com.JRFleetview.app"
    },
    "cordova-plugin-ionic-keyboard": {
      "PACKAGE_NAME": "com.JRFleetview.app"
    },
    "cordova-plugin-ionic-webview": {
      "PACKAGE_NAME": "com.JRFleetview.app"
    },
    "cordova-plugin-nativeaudio": {
      "PACKAGE_NAME": "com.JRFleetview.app"
    },
    "cordova-plugin-nativegeocoder": {
      "LOCATION_WHEN_IN_USE_DESCRIPTION": "Use geocoder service",
      "PACKAGE_NAME": "com.JRFleetview.app"
    },
    "cordova-plugin-network-information": {
      "PACKAGE_NAME": "com.JRFleetview.app"
    },
    "cordova-plugin-speechrecognition": {
      "PACKAGE_NAME": "com.JRFleetview.app"
    },
    "cordova-plugin-splashscreen": {
      "PACKAGE_NAME": "com.JRFleetview.app"
    },
    "cordova-plugin-statusbar": {
      "PACKAGE_NAME": "com.JRFleetview.app"
    },
    "cordova-plugin-tts": {
      "PACKAGE_NAME": "com.JRFleetview.app"
    },
    "cordova-plugin-whitelist": {
      "PACKAGE_NAME": "com.JRFleetview.app"
    },
    "cordova-plugin-x-socialsharing": {
      "PHOTO_LIBRARY_ADD_USAGE_DESCRIPTION": "This app requires photo library access to function properly.",
      "PHOTO_LIBRARY_USAGE_DESCRIPTION": "This app requires photo library access to function properly.",
      "PACKAGE_NAME": "com.JRFleetview.app"
    },
    "cordova-sms-plugin": {
      "PACKAGE_NAME": "com.JRFleetview.app"
    },
    "phonegap-plugin-barcodescanner": {
      "PACKAGE_NAME": "com.JRFleetview.app"
    },
    "phonegap-plugin-push": {
      "PACKAGE_NAME": "com.JRFleetview.app"
    }
  },
  "dependent_plugins": {
    "cordova-plugin-cocoapod-support": {
      "PACKAGE_NAME": "com.JRFleetview.app"
    },
    "com.googlemaps.ios": {
      "PACKAGE_NAME": "com.JRFleetview.app"
    },
    "cordova-plugin-add-swift-support": {
      "PACKAGE_NAME": "com.JRFleetview.app"
    },
    "es6-promise-plugin": {
      "PACKAGE_NAME": "com.JRFleetview.app"
    },
    "cordova-support-google-services": {
      "PACKAGE_NAME": "com.JRFleetview.app"
    }
  }
}
