{
    "cities": [
        {
            "city": "Mumbai",
            "petrol": "79.94",
            "diesel": "66.62",
            "petrol_yesterday": "80.10",
            "diesel_yesterday": "66.84",
            "state": "Maharashtra",
            "date": "18-02-2018"
        },
        {
            "city": "Delhi",
            "petrol": "72.07",
            "diesel": "62.56",
            "petrol_yesterday": "72.23",
            "diesel_yesterday": "62.76",
            "state": "Delhi",
            "date": "18-02-2018"
        },
        {
            "city": "Chennai",
            "petrol": "74.74",
            "diesel": "65.96",
            "petrol_yesterday": "74.91",
            "diesel_yesterday": "66.17",
            "state": "Tamil Nadu",
            "date": "18-02-2018"
        },
        {
            "city": "Kolkata",
            "petrol": "74.78",
            "diesel": "65.22",
            "petrol_yesterday": "74.94",
            "diesel_yesterday": "65.42",
            "state": "West Bengal",
            "date": "18-02-2018"
        },
        {
            "city": "Noida",
            "petrol": "73.86",
            "diesel": "63.10",
            "petrol_yesterday": "73.98",
            "diesel_yesterday": "63.27",
            "state": "Uttar Pradesh",
            "date": "18-02-2018"
        },
        {
            "city": "Gurgaon",
            "petrol": "72.61",
            "diesel": "63.42",
            "petrol_yesterday": "72.77",
            "diesel_yesterday": "63.62",
            "state": "Haryana",
            "date": "18-02-2018"
        },
        {
            "city": "Ghaziabad",
            "petrol": "73.75",
            "diesel": "62.99",
            "petrol_yesterday": "73.87",
            "diesel_yesterday": "63.16",
            "state": "Uttar Pradesh",
            "date": "18-02-2018"
        },
        {
            "city": "Agartala",
            "petrol": "68.00",
            "diesel": "60.74",
            "petrol_yesterday": "68.15",
            "diesel_yesterday": "60.93",
            "state": "Tripura",
            "date": "18-02-2018"
        },
        {
            "city": "Faridabad",
            "petrol": "72.84",
            "diesel": "63.63",
            "petrol_yesterday": "73.00",
            "diesel_yesterday": "63.84",
            "state": "Haryana",
            "date": "18-02-2018"
        },
        {
            "city": "Bangalore",
            "petrol": "73.20",
            "diesel": "63.61",
            "petrol_yesterday": "73.37",
            "diesel_yesterday": "63.82",
            "state": "Karnataka",
            "date": "18-02-2018"
        },
        {
            "city": "Ambala",
            "petrol": "72.21",
            "diesel": "63.05",
            "petrol_yesterday": "72.37",
            "diesel_yesterday": "63.25",
            "state": "Haryana",
            "date": "18-02-2018"
        }
    ],
    "location": "India",
    "date": "18-02-2018",
    "history": {
        "labels": [
            "15th Jan",
            "16th Jan",
            "17th Jan",
            "18th Jan",
            "19th Jan",
            "20th Jan",
            "21st Jan",
            "22nd Jan",
            "23rd Jan",
            "24th Jan",
            "25th Jan"
        ],
        "datasets": [
            {
                "data": [
                    "71.74",
                    "71.82",
                    "71.94",
                    "72.10",
                    "72.24",
                    "72.42",
                    "72.60",
                    "72.75",
                    "72.89",
                    "72.94",
                    "73.00"
                ],
                "label": "Petrol Price"
            },
            {
                "data": [
                    "63.07",
                    "63.22",
                    "63.40",
                    "63.59",
                    "63.78",
                    "63.97",
                    "64.17",
                    "64.35",
                    "64.54",
                    "64.72",
                    "64.87"
                ],
                "label": "Diesel Price"
            }
        ]
    }
}